id: 6rvhy8rwjhcnb6v6a26n823m1j4gmaogxz41w12y17tzhpuk
name: mbedtls
main: src/main.zig
c_source_files:
  - src/tls_compat.c
dependencies:
  - src: git https://github.com/ARMmbed/mbedtls
    version: tag-v2.26.0
    c_include_dirs:
      - include
      - library
    c_source_flags:
      - -Wall
    c_source_files:
     - library/rsa.c
     - library/platform_util.c
     - library/oid.c
     - library/asn1write.c
     - library/platform.c
     - library/sha1.c
     - library/pem.c
     - library/x509_crt.c
     - library/md.c
     - library/ripemd160.c
     - library/sha256.c
     - library/x509_create.c
     - library/ssl_tls13_keys.c
     - library/timing.c
     - library/pkcs11.c
     - library/debug.c
     - library/certs.c
     - library/psa_crypto_driver_wrappers.c
     - library/psa_its_file.c
     - library/md2.c
     - library/dhm.c
     - library/cipher_wrap.c
     - library/pkwrite.c
     - library/psa_crypto.c
     - library/asn1parse.c
     - library/version.c
     - library/arc4.c
     - library/net_sockets.c
     - library/padlock.c
     - library/ssl_cache.c
     - library/md5.c
     - library/ecp_curves.c
     - library/blowfish.c
     - library/entropy.c
     - library/x509_crl.c
     - library/ctr_drbg.c
     - library/aes.c
     - library/pk.c
     - library/x509write_csr.c
     - library/ccm.c
     - library/havege.c
     - library/psa_crypto_storage.c
     - library/psa_crypto_client.c
     - library/pkcs12.c
     - library/poly1305.c
     - library/ecdsa.c
     - library/error.c
     - library/hkdf.c
     - library/memory_buffer_alloc.c
     - library/version_features.c
     - library/psa_crypto_ecp.c
     - library/threading.c
     - library/camellia.c
     - library/ecdh.c
     - library/cipher.c
     - library/ssl_cli.c
     - library/ssl_cookie.c
     - library/x509.c
     - library/ssl_ciphersuites.c
     - library/base64.c
     - library/chachapoly.c
     - library/gcm.c
     - library/sha512.c
     - library/cmac.c
     - library/x509_csr.c
     - library/ecp.c
     - library/ecjpake.c
     - library/hmac_drbg.c
     - library/chacha20.c
     - library/xtea.c
     - library/ssl_tls.c
     - library/ssl_msg.c
     - library/x509write_crt.c
     - library/pkcs5.c
     - library/entropy_poll.c
     - library/psa_crypto_slot_management.c
     - library/ssl_srv.c
     - library/bignum.c
     - library/rsa_internal.c
     - library/psa_crypto_se.c
     - library/md4.c
     - library/nist_kw.c
     - library/psa_crypto_rsa.c
     - library/pk_wrap.c
     - library/pkparse.c
     - library/aesni.c
     - library/des.c
     - library/ssl_ticket.c
     - library/aria.c

